# NAME     : Hpp
# DATA     : 0
# AF2      : 0
# PRIORITY : 0

mc20_13TeV.523151.MGPy8EG_HppHp3WZ_Hpp200.deriv.DAOD_PHYS.e8419_a899_r13144_p5769
mc20_13TeV.523152.MGPy8EG_HppHp3WZ_Hpp220.deriv.DAOD_PHYS.e8419_a899_r13144_p5769
mc20_13TeV.523153.MGPy8EG_HppHp3WZ_Hpp300.deriv.DAOD_PHYS.e8419_a899_r13144_p5769
mc20_13TeV.523154.MGPy8EG_HppHp3WZ_Hpp400.deriv.DAOD_PHYS.e8419_a899_r13144_p5769
mc20_13TeV.523155.MGPy8EG_HppHp3WZ_Hpp450.deriv.DAOD_PHYS.e8419_a899_r13144_p5769
mc20_13TeV.523156.MGPy8EG_HppHp3WZ_Hpp500.deriv.DAOD_PHYS.e8419_a899_r13144_p5769
mc20_13TeV.523157.MGPy8EG_HppHp3WZ_Hpp550.deriv.DAOD_PHYS.e8419_a899_r13144_p5769
mc20_13TeV.523158.MGPy8EG_HppHp3WZ_Hpp600.deriv.DAOD_PHYS.e8419_a899_r13144_p5769
