{
    "labels": [
        "allEvents", 
        "Pass good run list (only data)", 
        "passLAr", 
        "passTile", 
        "passIncompleteEvt", 
        "Pass SCT cleaning cuts", 
        "PV with >=2 tracks", 
        "Pass bad muon veto", 
        "Pass loose bad jet event veto", 
        "Pass Met or 1L Trigger", 
        "== 0 baseline leptons", 
        "0L: MET>200", 
        "0L: nJet(125GeV)", 
        "0L: minDPhi_met_allJets30>0.4"
    ], 
    "cutflow": {
        "Pass loose bad jet event veto": 9928.0, 
        "Pass SCT cleaning cuts": 10000.0, 
        "Pass Met or 1L Trigger": 4931.0, 
        "== 0 baseline leptons": 4770.0, 
        "passIncompleteEvt": 10000.0, 
        "0L: minDPhi_met_allJets30>0.4": 1689.0, 
        "passLAr": 10000.0, 
        "Pass bad muon veto": 9959.0, 
        "0L: MET>200": 1970.0, 
        "Pass good run list (only data)": 10000.0, 
        "allEvents": 10000.0, 
        "0L: nJet(125GeV)": 1876.0, 
        "PV with >=2 tracks": 10000.0, 
        "passTile": 10000.0
    }
}